^C:\USERS\NEW USER\SOURCE\REPOS\15\DEBUG\15.OBJ
/OUT:"C:\USERS\NEW USER\SOURCE\REPOS\15\DEBUG\15.EXE" /INCREMENTAL /NOLOGO KERNEL32.LIB USER32.LIB GDI32.LIB WINSPOOL.LIB COMDLG32.LIB ADVAPI32.LIB SHELL32.LIB OLE32.LIB OLEAUT32.LIB UUID.LIB ODBC32.LIB ODBCCP32.LIB /MANIFEST /MANIFESTUAC:"level='asInvoker' uiAccess='false'" /manifest:embed /DEBUG:FASTLINK /PDB:"C:\USERS\NEW USER\SOURCE\REPOS\15\DEBUG\15.PDB" /SUBSYSTEM:CONSOLE /TLBID:1 /DYNAMICBASE /NXCOMPAT /IMPLIB:"C:\USERS\NEW USER\SOURCE\REPOS\15\DEBUG\15.LIB" /MACHINE:X86 DEBUG\15.OBJ
^C:\USERS\NEW USER\DESKTOP\PROJECTS\VISUAL\15\DEBUG\15.OBJ
/OUT:"C:\USERS\NEW USER\DESKTOP\PROJECTS\VISUAL\15\DEBUG\15.EXE" /INCREMENTAL /NOLOGO KERNEL32.LIB USER32.LIB GDI32.LIB WINSPOOL.LIB COMDLG32.LIB ADVAPI32.LIB SHELL32.LIB OLE32.LIB OLEAUT32.LIB UUID.LIB ODBC32.LIB ODBCCP32.LIB /MANIFEST /MANIFESTUAC:"level='asInvoker' uiAccess='false'" /manifest:embed /DEBUG:FASTLINK /PDB:"C:\USERS\NEW USER\DESKTOP\PROJECTS\VISUAL\15\DEBUG\15.PDB" /SUBSYSTEM:CONSOLE /TLBID:1 /DYNAMICBASE /NXCOMPAT /IMPLIB:"C:\USERS\NEW USER\DESKTOP\PROJECTS\VISUAL\15\DEBUG\15.LIB" /MACHINE:X86 DEBUG\15.OBJ
